%YAML 1.1
%TAG !u! tag:unity3d.com,2011:
--- !u!74 &7400000
AnimationClip:
  m_ObjectHideFlags: 0
  m_PrefabParentObject: {fileID: 0}
  m_PrefabInternal: {fileID: 0}
  m_Name: Animation_PersoMoveTest
  serializedVersion: 6
  m_Legacy: 0
  m_Compressed: 0
  m_UseHighQualityCurve: 1
  m_RotationCurves: []
  m_CompressedRotationCurves: []
  m_PositionCurves:
  - curve:
      serializedVersion: 2
      m_Curve:
      - time: 0
        value: {x: -11.0699997, y: 2.1400001, z: -11.6199999}
        inSlope: {x: .184999943, y: 0, z: 2.53476024}
        outSlope: {x: .184999943, y: 0, z: 2.53476024}
        tangentMode: 0
      - time: 2
        value: {x: -10.6999998, y: 2.1400001, z: -6.55047941}
        inSlope: {x: -.457499981, y: 0, z: 2.55823016}
        outSlope: {x: -.457499981, y: 0, z: 2.55823016}
        tangentMode: 0
      - time: 4
        value: {x: -12.8999996, y: 2.1400001, z: -1.38707924}
        inSlope: {x: -.268749982, y: 0, z: 2.47901869}
        outSlope: {x: -.268749982, y: 0, z: 2.47901869}
        tangentMode: 0
      - time: 6.13333321
        value: {x: -11.6999998, y: 2.1400001, z: 3.68244076}
        inSlope: {x: -.361607283, y: 0, z: 2.4517765}
        outSlope: {x: -.361607283, y: 0, z: 2.4517765}
        tangentMode: 0
      - time: 8
        value: {x: -14.1000004, y: 2.1400001, z: 8.39990997}
        inSlope: {x: .114642918, y: 0, z: 2.12613034}
        outSlope: {x: .114642918, y: 0, z: 2.12613034}
        tangentMode: 0
      - time: 10
        value: {x: -11.0699997, y: 2.1400001, z: 11.8500004}
        inSlope: {x: 1.76900399, y: 0, z: .616832733}
        outSlope: {x: 1.76900399, y: 0, z: .616832733}
        tangentMode: 0
      - time: 11.9333334
        value: {x: -7.15885162, y: 2.1400001, z: 10.8999996}
        inSlope: {x: 2.13285637, y: 0, z: .383342534}
        outSlope: {x: 2.13285637, y: 0, z: .383342534}
        tangentMode: 0
      - time: 14
        value: {x: -2.52392817, y: 2.1400001, z: 13.5}
        inSlope: {x: 2.28620815, y: 0, z: .0859288573}
        outSlope: {x: 2.28620815, y: 0, z: .0859288573}
        tangentMode: 0
      - time: 15.9333334
        value: {x: 1.98018026, y: 2.1400001, z: 11.3999996}
        inSlope: {x: 2.34653521, y: 0, z: .182702959}
        outSlope: {x: 2.34653521, y: 0, z: .182702959}
        tangentMode: 0
      - time: 18
        value: {x: 6.86445618, y: 2.1400001, z: 14.3999996}
        inSlope: {x: 2.3680656, y: 0, z: .0883066654}
        outSlope: {x: 2.3680656, y: 0, z: .0883066654}
        tangentMode: 0
      - time: 20
        value: {x: 11.6099997, y: 2.1400001, z: 11.8500004}
        inSlope: {x: 2.37277174, y: 0, z: -1.27499962}
        outSlope: {x: 2.37277174, y: 0, z: -1.27499962}
        tangentMode: 0
      m_PreInfinity: 2
      m_PostInfinity: 2
    path: 
  m_ScaleCurves: []
  m_FloatCurves: []
  m_PPtrCurves: []
  m_SampleRate: 30
  m_WrapMode: 0
  m_Bounds:
    m_Center: {x: 0, y: 0, z: 0}
    m_Extent: {x: 0, y: 0, z: 0}
  m_ClipBindingConstant:
    genericBindings:
    - path: 0
      attribute: 1
      script: {fileID: 0}
      classID: 4
      customType: 0
      isPPtrCurve: 0
    pptrCurveMapping: []
  m_AnimationClipSettings:
    serializedVersion: 2
    m_StartTime: 0
    m_StopTime: 20
    m_OrientationOffsetY: 0
    m_Level: 0
    m_CycleOffset: 0
    m_LoopTime: 1
    m_LoopBlend: 0
    m_LoopBlendOrientation: 0
    m_LoopBlendPositionY: 0
    m_LoopBlendPositionXZ: 0
    m_KeepOriginalOrientation: 0
    m_KeepOriginalPositionY: 1
    m_KeepOriginalPositionXZ: 0
    m_HeightFromFeet: 0
    m_Mirror: 0
  m_EditorCurves:
  - curve:
      serializedVersion: 2
      m_Curve:
      - time: 0
        value: -11.0699997
        inSlope: .184999943
        outSlope: .184999943
        tangentMode: 10
      - time: 2
        value: -10.6999998
        inSlope: -.457499981
        outSlope: -.457499981
        tangentMode: 10
      - time: 4
        value: -12.8999996
        inSlope: -.268749982
        outSlope: -.268749982
        tangentMode: 10
      - time: 6.13333321
        value: -11.6999998
        inSlope: -.361607283
        outSlope: -.361607283
        tangentMode: 10
      - time: 8
        value: -14.1000004
        inSlope: .114642918
        outSlope: .114642918
        tangentMode: 10
      - time: 10
        value: -11.0699997
        inSlope: 1.76900399
        outSlope: 1.76900399
        tangentMode: 10
      - time: 11.9333334
        value: -7.15885162
        inSlope: 2.13285637
        outSlope: 2.13285637
        tangentMode: 10
      - time: 14
        value: -2.52392817
        inSlope: 2.28620815
        outSlope: 2.28620815
        tangentMode: 10
      - time: 15.9333334
        value: 1.98018026
        inSlope: 2.34653521
        outSlope: 2.34653521
        tangentMode: 10
      - time: 18
        value: 6.86445618
        inSlope: 2.3680656
        outSlope: 2.3680656
        tangentMode: 10
      - time: 20
        value: 11.6099997
        inSlope: 2.37277174
        outSlope: 2.37277174
        tangentMode: 10
      m_PreInfinity: 2
      m_PostInfinity: 2
    attribute: m_LocalPosition.x
    path: 
    classID: 4
    script: {fileID: 0}
  - curve:
      serializedVersion: 2
      m_Curve:
      - time: 0
        value: 2.1400001
        inSlope: 0
        outSlope: 0
        tangentMode: 10
      - time: 2
        value: 2.1400001
        inSlope: 0
        outSlope: 0
        tangentMode: 10
      - time: 4
        value: 2.1400001
        inSlope: 0
        outSlope: 0
        tangentMode: 10
      - time: 6.13333321
        value: 2.1400001
        inSlope: 0
        outSlope: 0
        tangentMode: 10
      - time: 8
        value: 2.1400001
        inSlope: 0
        outSlope: 0
        tangentMode: 10
      - time: 10
        value: 2.1400001
        inSlope: 0
        outSlope: 0
        tangentMode: 10
      - time: 11.9333334
        value: 2.1400001
        inSlope: 0
        outSlope: 0
        tangentMode: 10
      - time: 14
        value: 2.1400001
        inSlope: 0
        outSlope: 0
        tangentMode: 10
      - time: 15.9333334
        value: 2.1400001
        inSlope: 0
        outSlope: 0
        tangentMode: 10
      - time: 18
        value: 2.1400001
        inSlope: 0
        outSlope: 0
        tangentMode: 10
      - time: 20
        value: 2.1400001
        inSlope: 0
        outSlope: 0
        tangentMode: 10
      m_PreInfinity: 2
      m_PostInfinity: 2
    attribute: m_LocalPosition.y
    path: 
    classID: 4
    script: {fileID: 0}
  - curve:
      serializedVersion: 2
      m_Curve:
      - time: 0
        value: -11.6199999
        inSlope: 2.53476024
        outSlope: 2.53476024
        tangentMode: 10
      - time: 2
        value: -6.55047941
        inSlope: 2.55823016
        outSlope: 2.55823016
        tangentMode: 10
      - time: 4
        value: -1.38707924
        inSlope: 2.47901869
        outSlope: 2.47901869
        tangentMode: 10
      - time: 6.13333321
        value: 3.68244076
        inSlope: 2.4517765
        outSlope: 2.4517765
        tangentMode: 10
      - time: 8
        value: 8.39990997
        inSlope: 2.12613034
        outSlope: 2.12613034
        tangentMode: 10
      - time: 10
        value: 11.8500004
        inSlope: .616832733
        outSlope: .616832733
        tangentMode: 10
      - time: 11.9333334
        value: 10.8999996
        inSlope: .383342534
        outSlope: .383342534
        tangentMode: 10
      - time: 14
        value: 13.5
        inSlope: .0859288573
        outSlope: .0859288573
        tangentMode: 10
      - time: 15.9333334
        value: 11.3999996
        inSlope: .182702959
        outSlope: .182702959
        tangentMode: 10
      - time: 18
        value: 14.3999996
        inSlope: .0883066654
        outSlope: .0883066654
        tangentMode: 10
      - time: 20
        value: 11.8500004
        inSlope: -1.27499962
        outSlope: -1.27499962
        tangentMode: 10
      m_PreInfinity: 2
      m_PostInfinity: 2
    attribute: m_LocalPosition.z
    path: 
    classID: 4
    script: {fileID: 0}
  m_EulerEditorCurves: []
  m_HasGenericRootTransform: 1
  m_HasMotionFloatCurves: 0
  m_GenerateMotionCurves: 0
  m_Events: []
